{
  "transporter": {
    "nats": {
      "uri": "nats://68.183.46.175:4222",
      "user": "aivavic",
      "pass": "pass1"
    }
  },
  "namespace": "production",
  "mongo": {
    "url": "mongodb://localhost/calories",
    "user": "user",
    "pass": "pass"
  }
}
